<?xml version="1.0" encoding="UTF-8"?>
<svg width="72px" height="48px" viewBox="0 0 72 48" version="1.1" xmlns="http://www.w3.org/2000/svg" xmlns:xlink="http://www.w3.org/1999/xlink">
    <!-- Generator: Sketch 54.1 (76490) - https://sketchapp.com -->
    <title>skin-concern-sensitive</title>
    <desc>Created with Sketch.</desc>
    <g id="icons" stroke="none" stroke-width="1" fill="none" fill-rule="evenodd">
        <g id="skin-concern" transform="translate(-154.000000, -84.000000)" fill="#FEA9AF" fill-rule="nonzero">
            <g id="skin-concern-sensitive" transform="translate(154.000000, 86.000000)">
                <path d="M4.44,42.9767442 C4.18391232,42.9784554 3.93694253,42.8795676 3.75,42.7004651 L1.31,40.3776744 C1.11994207,40.1847912 1.00905338,39.924914 1,39.6511628 C0.984825308,39.3666132 1.08630246,39.0884781 1.28,38.8837209 L9.15,30.5953488 C9.52117247,23.5088202 12.1561356,16.743052 16.65,11.3376744 C17.0110206,10.9559665 17.5974495,10.920407 18,11.255814 L20.1,12.8213953 L20.1,8.18604651 C20.0989711,7.87642116 20.2350085,7.58297029 20.47,7.38790698 C31.35,-1.64744186 41.8,0.11255814 42.24,0.184186047 C42.6087602,0.263619845 42.9025664,0.548435696 43,0.920930233 C44.26,5.53581395 40.69,15.4613953 40.53,15.8809302 C40.4045667,16.2272775 40.1064541,16.4775711 39.75,16.535814 L35.75,17.1804651 L37.55,19.0223256 C37.8330119,19.3123679 37.9195816,19.7472293 37.77,20.1274419 C36.83,22.4604651 33.12,25.8781395 32.7,26.2669767 C32.4884063,26.4558163 32.2089776,26.5449364 31.93,26.5125581 L26.76,25.9804651 L28.33,28.1497674 C28.4940566,28.371764 28.5626611,28.6525641 28.52,28.9274419 C28.4755756,29.2070174 28.3198868,29.4552439 28.09,29.6130233 C22.24,33.6139535 15.23,34.2176744 13.46,34.3097674 L5.14,42.7311628 C4.94593987,42.9016028 4.69543807,42.9894864 4.44,42.9767442 Z M3.44,39.5590698 L4.44,40.5311628 L12.38,32.5293023 C12.5637887,32.3427211 12.8111318,32.2363477 13.07,32.2325581 C17.6522557,32.0096762 22.1235273,30.7144626 26.14,28.4465116 L23.84,25.3051163 C23.5966572,24.9788069 23.5674209,24.535284 23.7657347,24.1784915 C23.9640484,23.821699 24.3515282,23.6206951 24.75,23.667907 L31.75,24.3944186 C33.2232481,23.0516442 34.5417932,21.5410796 35.68,19.892093 L33,17.2009302 C32.7415978,16.9312953 32.6493391,16.5379444 32.76,16.1776744 C32.8750376,15.8125367 33.1800142,15.5439203 33.55,15.4818605 L38.91,14.612093 C39.91,11.7469767 41.71,5.4744186 41.25,2.13860465 C38.9,1.93395349 30.62,1.82139535 22.08,8.66697674 L22.08,14.8065116 C22.0807787,15.1895743 21.8723996,15.5410009 21.54,15.7172093 C21.2031676,15.895972 20.796477,15.8642655 20.49,15.6353488 L17.56,13.4455814 C13.7015695,18.5218913 11.4542191,24.6851435 11.12,31.1069767 C11.1090229,31.3561956 11.0094484,31.5927263 10.84,31.772093 L3.44,39.5590698 Z" id="Shape"></path>
            </g>
        </g>
    </g>
</svg>